\relax 
\@writefile{toc}{\contentsline {section}{\numberline {1}Overview}{1}}
\@writefile{lof}{\contentsline {figure}{\numberline {1}{\ignorespaces Scene model from Blender}}{2}}
\@writefile{lof}{\contentsline {figure}{\numberline {2}{\ignorespaces Scene from same viewing angle in ray tracer}}{2}}
\@writefile{toc}{\contentsline {section}{\numberline {2}Ray Caster}{3}}
\@writefile{lof}{\contentsline {figure}{\numberline {3}{\ignorespaces Ray cast scene}}{3}}
\@writefile{toc}{\contentsline {section}{\numberline {3}Lighting and Reflectance Models}{4}}
\@writefile{lof}{\contentsline {figure}{\numberline {4}{\ignorespaces Ambient shading}}{5}}
\@writefile{lof}{\contentsline {figure}{\numberline {5}{\ignorespaces Diffuse shading}}{5}}
\@writefile{lof}{\contentsline {figure}{\numberline {6}{\ignorespaces Specular shading}}{6}}
\@writefile{lof}{\contentsline {figure}{\numberline {7}{\ignorespaces All shading elements}}{6}}
\@writefile{toc}{\contentsline {section}{\numberline {4}Shadows}{7}}
\@writefile{lof}{\contentsline {figure}{\numberline {8}{\ignorespaces Shadows - Single light source}}{7}}
\@writefile{lof}{\contentsline {figure}{\numberline {9}{\ignorespaces Shadows - Multiple light sources}}{8}}
\@writefile{toc}{\contentsline {section}{\numberline {5}Multiple Light sources}{9}}
\@writefile{toc}{\contentsline {section}{\numberline {6}Animation}{9}}
\@writefile{lof}{\contentsline {figure}{\numberline {10}{\ignorespaces Animation - frame 1}}{9}}
\@writefile{lof}{\contentsline {figure}{\numberline {11}{\ignorespaces Animation - frame 2}}{10}}
\@writefile{lof}{\contentsline {figure}{\numberline {12}{\ignorespaces Animation - frame 3}}{10}}
\@writefile{lof}{\contentsline {figure}{\numberline {13}{\ignorespaces Animation - frame 4}}{11}}
\@writefile{lof}{\contentsline {figure}{\numberline {14}{\ignorespaces Animation - frame 5}}{11}}
\@writefile{lof}{\contentsline {figure}{\numberline {15}{\ignorespaces Animation - frame 6}}{12}}
\@writefile{lof}{\contentsline {figure}{\numberline {16}{\ignorespaces Animation - frame 7}}{12}}
\@writefile{toc}{\contentsline {section}{\numberline {7}Source}{13}}
