^C:\USERS\KYLE\DROPBOX\RAY TRACER\SOURCE\SOURCE\CAMERA.CPP
/c /ZI /nologo /W3 /WX- /sdl- /Od /Oy- /D _MBCS /Gm /EHsc /RTC1 /MDd /GS /fp:precise /Zc:wchar_t /Zc:forScope /Fo"DEBUG\OBJ\\" /Fd"DEBUG\OBJ\VC120.PDB" /Gd /TP /analyze- C:\USERS\KYLE\DROPBOX\RAY TRACER\SOURCE\SOURCE\CAMERA.CPP
^C:\USERS\KYLE\DROPBOX\RAY TRACER\SOURCE\SOURCE\IMAGE.CPP
/c /ZI /nologo /W3 /WX- /sdl- /Od /Oy- /D _MBCS /Gm /EHsc /RTC1 /MDd /GS /fp:precise /Zc:wchar_t /Zc:forScope /Fo"DEBUG\OBJ\\" /Fd"DEBUG\OBJ\VC120.PDB" /Gd /TP /analyze- C:\USERS\KYLE\DROPBOX\RAY TRACER\SOURCE\SOURCE\IMAGE.CPP
^C:\USERS\KYLE\DROPBOX\RAY TRACER\SOURCE\SOURCE\MAIN.CPP
/c /ZI /nologo /W3 /WX- /sdl- /Od /Oy- /D _MBCS /Gm /EHsc /RTC1 /MDd /GS /fp:precise /Zc:wchar_t /Zc:forScope /Fo"DEBUG\OBJ\\" /Fd"DEBUG\OBJ\VC120.PDB" /Gd /TP /analyze- C:\USERS\KYLE\DROPBOX\RAY TRACER\SOURCE\SOURCE\MAIN.CPP
^C:\USERS\KYLE\DROPBOX\RAY TRACER\SOURCE\SOURCE\RAYTRACER.CPP
/c /ZI /nologo /W3 /WX- /sdl- /Od /Oy- /D _MBCS /Gm /EHsc /RTC1 /MDd /GS /fp:precise /Zc:wchar_t /Zc:forScope /Fo"DEBUG\OBJ\\" /Fd"DEBUG\OBJ\VC120.PDB" /Gd /TP /analyze- C:\USERS\KYLE\DROPBOX\RAY TRACER\SOURCE\SOURCE\RAYTRACER.CPP
^C:\USERS\KYLE\DROPBOX\RAY TRACER\SOURCE\SOURCE\SCENE.CPP
/c /ZI /nologo /W3 /WX- /sdl- /Od /Oy- /D _MBCS /Gm /EHsc /RTC1 /MDd /GS /fp:precise /Zc:wchar_t /Zc:forScope /Fo"DEBUG\OBJ\\" /Fd"DEBUG\OBJ\VC120.PDB" /Gd /TP /analyze- C:\USERS\KYLE\DROPBOX\RAY TRACER\SOURCE\SOURCE\SCENE.CPP
^C:\USERS\KYLE\DROPBOX\RAY TRACER\SOURCE\SOURCE\TINY_OBJ_LOADER.CPP
/c /ZI /nologo /W3 /WX- /sdl- /Od /Oy- /D _MBCS /Gm /EHsc /RTC1 /MDd /GS /fp:precise /Zc:wchar_t /Zc:forScope /Fo"DEBUG\OBJ\\" /Fd"DEBUG\OBJ\VC120.PDB" /Gd /TP /analyze- C:\USERS\KYLE\DROPBOX\RAY TRACER\SOURCE\SOURCE\TINY_OBJ_LOADER.CPP
^C:\USERS\KYLE\DROPBOX\RAY TRACER\SOURCE\SOURCE\LIGHT.CPP
/c /ZI /nologo /W3 /WX- /sdl- /Od /Oy- /D _MBCS /Gm /EHsc /RTC1 /MDd /GS /fp:precise /Zc:wchar_t /Zc:forScope /Fo"DEBUG\OBJ\\" /Fd"DEBUG\OBJ\VC120.PDB" /Gd /TP /analyze- C:\USERS\KYLE\DROPBOX\RAY TRACER\SOURCE\SOURCE\LIGHT.CPP
