^C:\USERS\KYLE\DROPBOX\RAY TRACER\SOURCE\SOURCE\CAMERA.CPP|C:\USERS\KYLE\DROPBOX\RAY TRACER\SOURCE\SOURCE\IMAGE.CPP|C:\USERS\KYLE\DROPBOX\RAY TRACER\SOURCE\SOURCE\MAIN.CPP|C:\USERS\KYLE\DROPBOX\RAY TRACER\SOURCE\SOURCE\RAYTRACER.CPP|C:\USERS\KYLE\DROPBOX\RAY TRACER\SOURCE\SOURCE\SCENE.CPP|C:\USERS\KYLE\DROPBOX\RAY TRACER\SOURCE\SOURCE\TINY_OBJ_LOADER.CPP
C:\USERS\KYLE\DROPBOX\RAY TRACER\SOURCE\DEBUG\OBJ\VC120.PDB
C:\USERS\KYLE\DROPBOX\RAY TRACER\SOURCE\DEBUG\OBJ\VC120.IDB
C:\USERS\KYLE\DROPBOX\RAY TRACER\SOURCE\DEBUG\OBJ\CAMERA.OBJ
C:\USERS\KYLE\DROPBOX\RAY TRACER\SOURCE\DEBUG\OBJ\IMAGE.OBJ
C:\USERS\KYLE\DROPBOX\RAY TRACER\SOURCE\DEBUG\OBJ\MAIN.OBJ
C:\USERS\KYLE\DROPBOX\RAY TRACER\SOURCE\DEBUG\OBJ\RAYTRACER.OBJ
C:\USERS\KYLE\DROPBOX\RAY TRACER\SOURCE\DEBUG\OBJ\SCENE.OBJ
C:\USERS\KYLE\DROPBOX\RAY TRACER\SOURCE\DEBUG\OBJ\TINY_OBJ_LOADER.OBJ
^C:\USERS\KYLE\DROPBOX\RAY TRACER\SOURCE\SOURCE\CAMERA.CPP
C:\USERS\KYLE\DROPBOX\RAY TRACER\SOURCE\DEBUG\OBJ\VC120.PDB
^C:\USERS\KYLE\DROPBOX\RAY TRACER\SOURCE\SOURCE\IMAGE.CPP
C:\USERS\KYLE\DROPBOX\RAY TRACER\SOURCE\DEBUG\OBJ\VC120.PDB
^C:\USERS\KYLE\DROPBOX\RAY TRACER\SOURCE\SOURCE\MAIN.CPP
C:\USERS\KYLE\DROPBOX\RAY TRACER\SOURCE\DEBUG\OBJ\VC120.PDB
C:\USERS\KYLE\DROPBOX\RAY TRACER\SOURCE\DEBUG\OBJ\VC120.IDB
C:\USERS\KYLE\DROPBOX\RAY TRACER\SOURCE\DEBUG\OBJ\MAIN.OBJ
^C:\USERS\KYLE\DROPBOX\RAY TRACER\SOURCE\SOURCE\RAYTRACER.CPP
C:\USERS\KYLE\DROPBOX\RAY TRACER\SOURCE\DEBUG\OBJ\VC120.PDB
^C:\USERS\KYLE\DROPBOX\RAY TRACER\SOURCE\SOURCE\SCENE.CPP
C:\USERS\KYLE\DROPBOX\RAY TRACER\SOURCE\DEBUG\OBJ\VC120.PDB
^C:\USERS\KYLE\DROPBOX\RAY TRACER\SOURCE\SOURCE\TINY_OBJ_LOADER.CPP
C:\USERS\KYLE\DROPBOX\RAY TRACER\SOURCE\DEBUG\OBJ\VC120.PDB
^C:\USERS\KYLE\DROPBOX\RAY TRACER\SOURCE\SOURCE\LIGHT.CPP|C:\USERS\KYLE\DROPBOX\RAY TRACER\SOURCE\SOURCE\MAIN.CPP
C:\USERS\KYLE\DROPBOX\RAY TRACER\SOURCE\DEBUG\OBJ\VC120.PDB
C:\USERS\KYLE\DROPBOX\RAY TRACER\SOURCE\DEBUG\OBJ\VC120.IDB
C:\USERS\KYLE\DROPBOX\RAY TRACER\SOURCE\DEBUG\OBJ\LIGHT.OBJ
C:\USERS\KYLE\DROPBOX\RAY TRACER\SOURCE\DEBUG\OBJ\MAIN.OBJ
^C:\USERS\KYLE\DROPBOX\RAY TRACER\SOURCE\SOURCE\LIGHT.CPP
C:\USERS\KYLE\DROPBOX\RAY TRACER\SOURCE\DEBUG\OBJ\VC120.PDB
